{
  "name": "bogoga",
  "app_id": "85a7fa48",
  "proxies": [
    {
      "path": "/difi",
      "proxyUrl": "http://52.79.78.117/difi"
    },
    {
      "path": "/subway",
      "proxyUrl": "http://openapi.seoul.go.kr:8088"
    },
    {
      "path": "/map",
      "proxyUrl": "http://maps.googleapis.com/maps/api/geocode/json"
    },
    {
      "path": "/KpostPortal",
      "proxyUrl": "http://biz.epost.go.kr/KpostPortal"
    },
    {
      "path": "/local",
      "proxyUrl": "http://192.168.0.105:9090/difi"
    }
  ]
}
